<?xml version="1.0" encoding="UTF-8" standalone="no"?>
<svg
   xmlns:dc="http://purl.org/dc/elements/1.1/"
   xmlns:cc="http://creativecommons.org/ns#"
   xmlns:rdf="http://www.w3.org/1999/02/22-rdf-syntax-ns#"
   xmlns:svg="http://www.w3.org/2000/svg"
   xmlns="http://www.w3.org/2000/svg"
   xmlns:sodipodi="http://sodipodi.sourceforge.net/DTD/sodipodi-0.dtd"
   xmlns:inkscape="http://www.inkscape.org/namespaces/inkscape"
   enable-background="new 0 0 24 24"
   height="24px"
   viewBox="0 0 24 24"
   width="24px"
   fill="#000000"
   version="1.1"
   id="svg12"
   sodipodi:docname="sotification_black.svg"
   inkscape:version="1.0.2 (e86c870879, 2021-01-15)">
  <metadata
     id="metadata18">
    <rdf:RDF>
      <cc:Work
         rdf:about="">
        <dc:format>image/svg+xml</dc:format>
        <dc:type
           rdf:resource="http://purl.org/dc/dcmitype/StillImage" />
      </cc:Work>
    </rdf:RDF>
  </metadata>
  <defs
     id="defs16" />
  <sodipodi:namedview
     pagecolor="#ffffff"
     bordercolor="#666666"
     borderopacity="1"
     objecttolerance="10"
     gridtolerance="10"
     guidetolerance="10"
     inkscape:pageopacity="0"
     inkscape:pageshadow="2"
     inkscape:window-width="1854"
     inkscape:window-height="1039"
     id="namedview14"
     showgrid="false"
     inkscape:zoom="7.1625703"
     inkscape:cx="16.375255"
     inkscape:cy="-1.2043588"
     inkscape:window-x="66"
     inkscape:window-y="0"
     inkscape:window-maximized="1"
     inkscape:current-layer="svg12" />
  <g
     style="fill:#000000"
     id="g873"
     transform="matrix(0.48218977,0,0,0.48218977,12.169655,6.309488)">
    <path
       d="M 0,0 H 24 V 24 H 0 Z"
       fill="none"
       id="path859" />
    <path
       d="M 11.99,2 C 6.47,2 2,6.48 2,12 2,17.52 6.47,22 11.99,22 17.52,22 22,17.52 22,12 22,6.48 17.52,2 11.99,2 Z M 12,20 C 7.58,20 4,16.42 4,12 4,7.58 7.58,4 12,4 c 4.42,0 8,3.58 8,8 0,4.42 -3.58,8 -8,8 z M 12.5,7 H 11 v 6 l 5.25,3.15 0.75,-1.23 -4.5,-2.67 z"
       id="path861" />
  </g>
  <g
     id="g10-5">
    <rect
       fill="none"
       height="24"
       width="24"
       id="rect2-3"
       x="0"
       y="0" />
    <rect
       fill="none"
       height="1"
       width="10"
       x="7"
       y="20"
       id="rect4-5" />
    <rect
       fill="none"
       height="1"
       width="10"
       x="7"
       y="3"
       id="rect6-6" />
    <path
       d="M 17,18 H 7 V 6 h 10 v 1 h 2 V 3 C 19,1.9 18.1,1 17,1 H 7 C 5.9,1 5,1.9 5,3 v 18 c 0,1.1 0.9,2 2,2 h 10 c 1.1,0 2,-0.9 2,-2 V 17 H 17 Z M 7,3 H 17 V 4 H 7 Z M 17,21 H 7 v -1 h 10 z"
       id="path8-2"
       sodipodi:nodetypes="ccccccssssssssccccccccccccc" />
  </g>
</svg>
